{
  "success": true,
  "requestId": null,
  "resubmitToken": null,
  "msg": null,
  "content": {
    "totalCount": 26,
    "hasNextPage": true,
    "pageNo": 1,
    "pageSize": 15,
    "totalPageCount": 2,
    "currentPageNo": 1,
    "hasPreviousPage": false,
    "result": [
      {
        "interviewRemarkNum": 0,
        "processRate": 0,
        "countryScore": 0,
        "cityScore": 0,
        "companyId": 14709,
        "industryField": "教育",
        "city": "北京",
        "createTime": null,
        "companySize": null,
        "companyShortName": "德威",
        "companyLogo": "images/logo_default.png",
        "financeStage": "初创型(未融资)",
        "approve": 0,
        "companyFeatures": "五险一金、发展空间大",
        "companyFullName": "德威控股集团",
        "positionNum": 0
      },
      {
        "interviewRemarkNum": 0,
        "processRate": 0,
        "countryScore": 0,
        "cityScore": 0,
        "companyId": 78673,
        "industryField": "O2O,其他",
        "city": "上海",
        "createTime": null,
        "companySize": null,
        "companyShortName": "德威",
        "companyLogo": "image1/M00/30/DB/CgYXBlWKFqSAb2WzAAAfeCM35J4495.jpg?cc=0.527943304693578",
        "financeStage": "初创型(未融资)",
        "approve": 0,
        "companyFeatures": "一家有着20多年历史的物流业实体企业，在成为业内翘楚的时候，仍不断向新技术、新应用进军",
        "companyFullName": "上海德威集装箱运输有限公司",
        "positionNum": 0
      },
      {
        "interviewRemarkNum": 51,
        "processRate": 80,
        "countryScore": 0,
        "cityScore": 0,
        "companyId": 29485,
        "industryField": "文化娱乐",
        "city": "北京",
        "createTime": null,
        "companySize": null,
        "companyShortName": "摩德威行",
        "companyLogo": "i/image/M00/88/8B/CgqKkVht53iAGOjIAAARxwYAEEs970.jpg",
        "financeStage": "初创型(未融资)",
        "approve": 1,
        "companyFeatures": "提供独立的观点、客观的分析、真实的报道和高效的互动。让热爱生活的品质人群，从中找寻最好的自己。",
        "companyFullName": "摩德威行营销策划服务（北京）有限公司",
        "positionNum": 4
      },
      {
        "interviewRemarkNum": 8,
        "processRate": 9,
        "countryScore": 0,
        "cityScore": 0,
        "companyId": 101480,
        "industryField": "金融",
        "city": "北京",
        "createTime": null,
        "companySize": null,
        "companyShortName": "联德威",
        "companyLogo": "image2/M00/0E/6F/CgpzWlYkvfOAaqSbAAAKAsFViRE595.jpg?cc=0.22506758267991245",
        "financeStage": "初创型(未融资)",
        "approve": 0,
        "companyFeatures": "扁平式管理、敏捷开发模式、工作环境舒适、公司稳定",
        "companyFullName": "联德威软件科技（北京）有限公司",
        "positionNum": 2
      },
      {
        "interviewRemarkNum": 0,
        "processRate": 45,
        "countryScore": 0,
        "cityScore": 0,
        "companyId": 111567,
        "industryField": "移动互联网",
        "city": "北京",
        "createTime": null,
        "companySize": null,
        "companyShortName": "德威顺成",
        "companyLogo": "i/image/M00/14/5B/CgpFT1j4S_qAKkduAABn8Z9W71U966.png",
        "financeStage": "初创型(未融资)",
        "approve": 1,
        "companyFeatures": "如果我们所从事的事业符合你的心愿，就请来加入我们这个快乐的大家庭吧！",
        "companyFullName": "北京德威顺成文化发展有限公司",
        "positionNum": 1
      },
      {
        "interviewRemarkNum": 0,
        "processRate": 0,
        "countryScore": 0,
        "cityScore": 0,
        "companyId": 209083,
        "industryField": "企业服务,移动互联网",
        "city": "苏州",
        "createTime": null,
        "companySize": null,
        "companyShortName": "米德威尔",
        "companyLogo": "i/image/M00/2F/29/CgpEMlkvkNuAXnRIAAACGogIW5g968.png",
        "financeStage": "初创型(未融资)",
        "approve": 0,
        "companyFeatures": "高校网上办事大厅引领者",
        "companyFullName": "苏州米德威尔信息科技有限公司",
        "positionNum": 1
      },
      {
        "interviewRemarkNum": 0,
        "processRate": 0,
        "countryScore": 0,
        "cityScore": 0,
        "companyId": 48390,
        "industryField": "移动互联网",
        "city": "北京",
        "createTime": null,
        "companySize": null,
        "companyShortName": "海德威",
        "companyLogo": "image1/M00/00/7E/Cgo8PFTUXceAEtUdAAA96FKyL90117.jpg",
        "financeStage": "初创型(未融资)",
        "approve": 0,
        "companyFeatures": "公司有很大的舞台.",
        "companyFullName": "北京海德威营销咨询有限公司",
        "positionNum": 0
      },
      {
        "interviewRemarkNum": 0,
        "processRate": 0,
        "countryScore": 0,
        "cityScore": 0,
        "companyId": 35278,
        "industryField": "金融",
        "city": "深圳",
        "createTime": null,
        "companySize": null,
        "companyShortName": "德威资本",
        "companyLogo": "image1/M00/00/53/CgYXBlTUXRiARRMzAAC8b2Yvo84803.jpg",
        "financeStage": "初创型(未融资)",
        "approve": 0,
        "companyFeatures": "以共赢、专业作为核心经营理念，旨在打造一个以投资和综合经营能力为核心竞争力的另类资产投资和管理平台。",
        "companyFullName": "深圳德威德佳投资有限公司",
        "positionNum": 0
      },
      {
        "interviewRemarkNum": 2,
        "processRate": 0,
        "countryScore": 0,
        "cityScore": 0,
        "companyId": 8031,
        "industryField": "企业服务",
        "city": "北京",
        "createTime": null,
        "companySize": null,
        "companyShortName": "联德威",
        "companyLogo": "image1/M00/00/11/Cgo8PFTUWDGAQkOGAAAzy4Eeh8w855.jpg",
        "financeStage": "初创型(未融资)",
        "approve": 0,
        "companyFeatures": "目前项目均是为北欧中小银行及金融企业提供产品研发",
        "companyFullName": "联德威软件科技（北京）有限公司",
        "positionNum": 0
      },
      {
        "interviewRemarkNum": 0,
        "processRate": 22,
        "countryScore": 0,
        "cityScore": 0,
        "companyId": 20177,
        "industryField": "移动互联网,游戏",
        "city": "上海",
        "createTime": null,
        "companySize": null,
        "companyShortName": "爱德威软件",
        "companyLogo": "i/image/M00/00/53/CgqKkVZBit-ARp_xAABBlNNo6vg159.jpg",
        "financeStage": "上市公司",
        "approve": 0,
        "companyFeatures": "和谐 仁心 诚信 共有 卓越 创新",
        "companyFullName": "爱德威软件开发（上海）有限公司",
        "positionNum": 0
      },
      {
        "interviewRemarkNum": 0,
        "processRate": 0,
        "countryScore": 0,
        "cityScore": 0,
        "companyId": 97358,
        "industryField": "其他",
        "city": "上海",
        "createTime": null,
        "companySize": null,
        "companyShortName": "上海德威",
        "companyLogo": "image2/M00/07/FE/CgqLKVYBCtWAQLwvAABd3-uQnAQ354.png?cc=0.4619567897170782",
        "financeStage": "初创型(未融资)",
        "approve": 1,
        "companyFeatures": "一家有着20多年历史的物流业实体企业，在成为业内翘楚的时候，仍不断向新技术、新应用进军",
        "companyFullName": "上海德威集装箱运输有限公司",
        "positionNum": 0
      },
      {
        "interviewRemarkNum": 0,
        "processRate": 0,
        "countryScore": 0,
        "cityScore": 0,
        "companyId": 96133,
        "industryField": "企业服务,其他",
        "city": "北京",
        "createTime": null,
        "companySize": null,
        "companyShortName": "盛大德威Topwinner",
        "companyLogo": "image2/M00/06/26/CgpzWlX5HGeAUoNuAABes0lMUrE060.JPG?cc=0.7791187956463546",
        "financeStage": "初创型(不需要融资)",
        "approve": 0,
        "companyFeatures": "国际货运代理无船承运人，国际物流专家",
        "companyFullName": "盛大德威国际货运代理（北京)有限公司",
        "positionNum": 0
      },
      {
        "interviewRemarkNum": 0,
        "processRate": 0,
        "countryScore": 0,
        "cityScore": 0,
        "companyId": 99909,
        "industryField": "移动互联网,其他",
        "city": "北京",
        "createTime": null,
        "companySize": null,
        "companyShortName": "博昂德威",
        "companyLogo": "image2/M00/0B/FE/CgpzWlYbLVSAdgeNAACQ59mKC4g347.JPG?cc=0.27144800907567784",
        "financeStage": "初创型(未融资)",
        "approve": 0,
        "companyFeatures": "以通信增值为主营业务，凭借“客户至上，服务为本”的经营理念，在竞争激烈的市场环境中积极进取，稳步发展",
        "companyFullName": "北京博昂德威信息技术有限公司",
        "positionNum": 0
      },
      {
        "interviewRemarkNum": 0,
        "processRate": 0,
        "countryScore": 0,
        "cityScore": 0,
        "companyId": 89569,
        "industryField": "移动互联网",
        "city": "上海",
        "createTime": null,
        "companySize": null,
        "companyShortName": "爱德威广告",
        "companyLogo": "image1/M00/42/E1/Cgo8PFXNhbGAY0XfAAAVhmQ760w705.JPG?cc=0.5307647997979075",
        "financeStage": "上市公司",
        "approve": 0,
        "companyFeatures": "爱德威广告将日本先进的广告理念和技术带入中国，为中外企业带来性价比最优的网络整合营销",
        "companyFullName": "爱德威广告（上海）有限公司",
        "positionNum": 0
      },
      {
        "interviewRemarkNum": 0,
        "processRate": 0,
        "countryScore": 0,
        "cityScore": 0,
        "companyId": 88697,
        "industryField": "电子商务,文化娱乐",
        "city": "济南",
        "createTime": null,
        "companySize": null,
        "companyShortName": "美德威",
        "companyLogo": "image1/M00/41/CE/Cgo8PFXJnziATMiZAACzzXq1T_o526.jpg?cc=0.2483300450257957",
        "financeStage": "初创型(未融资)",
        "approve": 0,
        "companyFeatures": "知道不是力量，知道并做到才是力量",
        "companyFullName": "青岛美德威文化传播有限公司",
        "positionNum": 0
      }
    ],
    "start": 0
  },
  "code": 0
}